{
  "type": "service_account",
  "project_id": "pamedhisjav",
  "private_key_id": "282dd6603346fbdcaf559de51f75632d9163f8c7",
  "private_key": "-----BEGIN PRIVATE KEY-----\nMIIEvQIBADANBgkqhkiG9w0BAQEFAASCBKcwggSjAgEAAoIBAQCpY9UTAlFO4av2\nSYzRCOcvi+B152ICBsxucQyUjoI0hdH6QrHHXDWN1AkZ6cgxwAbTGT6KQr0ubQl6\nnQ55Yl04xeqA1GtpHTbYHfcCI9ycyuZISFKkkO2Aftzu6KKpAJy6inSwom+yKKct\nVZEHPSHsGbJlxvU2KtWH+qbW1P9SlFg8dDWsqr6Z8rBSectmK5JaeCoHt5lpx4Nz\npj+kx4fQcsQ00CiOUf6nKwGUMeEQaFH5eWl5hpeV8e/TPZV3YXcwjeijr7WcZdvs\nAGEKQpv4ZDGuk9SRIwEi3X25Kw7W52+kNVmu4VmpXHpczlyNJNQCtrM42tY8T0Bu\nUfflHuUxAgMBAAECggEAI7ZJgOV3MPNBJv6gsp126D5MR29N6XF3fj1VUqis6Nfh\nyipvgsF9BPbUKGNycpKynaTv24RwkC4q1m/wUkUbtFF9vEWMk6+2FWBT6F6ZL3FT\nlZ+x1MI9YF7ew3vGd20KngV8zpSgieYqQNOObQFFepp8UxrcLdxgAngk3pwvbEBE\nXw/lJPV645cK4Lq2OgvR52bwkxd3rk7Nlg6lKRA9KjU58xaywkvbravl3bf0hqeZ\nDNgneSh79YFmZ118IzANiW9U4ssPzRsz8WcyyxKFPEVflGE5pd9h53exLdMYgXr9\nTaXLIV1lI8upU7rykspMAtE0ZCgumxvs9N3GW0OecQKBgQDbvfNbAks5GY4Pda+N\nBHWcDmZTriSGP9ZbPLhWEZBC5l2JuSSwJadol8UcDWBHXTZRD0o/Sg79wHpi8Nmo\nIuzGbOXxguXfb1+uXhyTqRMth8Dx3Qw+cIvAZ223SWgdsoJONWlDPutqE5kly2fQ\ncgI1gVbm6UNKM39JTOqNg/dgZQKBgQDFVvp3rHSI8kkM2OghR2G8NUPFOsMHftPw\nyBwUdDrXQgvQOEDYWK8SBUCqAOvB22+FjD52g7udWraHQZa4pILoD595P0lMLU1O\nPql0St8zLFBlMZ5zCJ17fKcuG++phWqebcIDOJIw2vMqx8Gf9EjdS1fFiqE5FGHo\njYmrZKgW3QKBgQDICIuevmDR0uSSSDSNr5CMhkM6S91t5HDyzzyTBRwI+oIN3F98\nhlp2CSri1X5emIjYk42oPXeWIYCHzu6kc16NZxaPmvQ9SLqWFY/4D0KpANpwkiQS\nNwvRE5Y58nX4Csc6AL8Y+w78mmigkiCoDRDbuijsvU2HH4fwpzchqg8oTQKBgDqG\nLQnIz1a95AQ3X8Be1xFmCo83eheC+X/zGMDIJ5snLzG1PSXsRx9lB2RjmYeIeG52\nxR+Iud9Uw8UhIn3n7Bq+Z2Eh767z0HVgCAlBGyil/8HDEWa0K2Av+7Sk/FKeCpyp\nmFw0LsbmaC9LxpSVcfaPHZysHFw9OzwonaeC1obRAoGAdyXL8TQbBQfqa3/YknsL\nmjQpyMjoTggQT4wWs2yaIEN1mOkwIaIVpaF8ySOJHdYss/o929RLYcrmrgKBHsN6\n6UywbzCODLsqtXiRbVsF3Rq879md8hAlAHyvz9STHhrwl7IZqm70bxMW2Sm4mxs2\nHFwKbSc85xYjQgKJ46YyYgc=\n-----END PRIVATE KEY-----\n",
  "client_email": "firebase-adminsdk-1ma2u@pamedhisjav.iam.gserviceaccount.com",
  "client_id": "117601255780802133219",
  "auth_uri": "https://accounts.google.com/o/oauth2/auth",
  "token_uri": "https://oauth2.googleapis.com/token",
  "auth_provider_x509_cert_url": "https://www.googleapis.com/oauth2/v1/certs",
  "client_x509_cert_url": "https://www.googleapis.com/robot/v1/metadata/x509/firebase-adminsdk-1ma2u%40pamedhisjav.iam.gserviceaccount.com"
}
